…
``` r
linked
#> # A tibble: 3,000 × 6
#>    id          area  mean median    sd count
#>    <chr>      <dbl> <dbl>  <dbl> <dbl> <int>
#>  1 ID_08939 6250000  79.5   80.4  6.72     6
#>  2 ID_29396 6250000  82.0   82.2  3.92     6
#>  3 ID_20257 6250000  82.4   84.2  5.93     4
#>  4 ID_12550 6250000  69.7   70.4  4.33     4
#>  5 ID_22042 6250000  83.7   83.7  2.22     6
#>  6 ID_15074 6250000  73.8   74.6 10.4      9
#>  7 ID_09514 6250000  29.1   22.9 19.8      9
#>  8 ID_15498 6250000  52.0   49.1 24.8      4
#>  9 ID_12606 6250000  81.4   80.5  5.44     6
#> 10 ID_26172 6250000  80.6   83.0  7.37     4
#> # ℹ 2,990 more rows
```
…
